info face="DisposableDroid BB" size=32 bold=0 italic=0 charset="" unicode=0 stretchH=100 smooth=1 aa=1 padding=1,1,1,1 spacing=-2,-2
common lineHeight=32 base=24 scaleW=512 scaleH=512 pages=1 packed=0
page id=0 file="font.png"
chars count=96
char id=10      x=0    y=0    width=0    height=0    xoffset=0    yoffset=0    xadvance=0    page=0    chnl=0 
char id=32      x=0    y=0    width=0    height=0    xoffset=-1   yoffset=23   xadvance=11   page=0    chnl=0 
char id=33      x=171  y=0    width=5    height=19   xoffset=1    yoffset=6    xadvance=7    page=0    chnl=0 
char id=34      x=38   y=43   width=11   height=8    xoffset=1    yoffset=7    xadvance=13   page=0    chnl=0 
char id=35      x=289  y=25   width=16   height=16   xoffset=1    yoffset=6    xadvance=18   page=0    chnl=0 
char id=36      x=268  y=0    width=13   height=19   xoffset=1    yoffset=6    xadvance=15   page=0    chnl=0 
char id=37      x=281  y=0    width=24   height=19   xoffset=1    yoffset=6    xadvance=25   page=0    chnl=0 
char id=38      x=263  y=25   width=16   height=18   xoffset=1    yoffset=7    xadvance=17   page=0    chnl=0 
char id=39      x=504  y=25   width=5    height=8    xoffset=1    yoffset=7    xadvance=7    page=0    chnl=0 
char id=40      x=21   y=0    width=7    height=24   xoffset=1    yoffset=3    xadvance=9    page=0    chnl=0 
char id=41      x=0    y=0    width=7    height=25   xoffset=1    yoffset=3    xadvance=9    page=0    chnl=0 
char id=42      x=28   y=43   width=10   height=10   xoffset=1    yoffset=7    xadvance=12   page=0    chnl=0 
char id=43      x=486  y=25   width=13   height=13   xoffset=1    yoffset=10   xadvance=15   page=0    chnl=0 
char id=44      x=504  y=25   width=5    height=8    xoffset=1    yoffset=20   xadvance=7    page=0    chnl=0 
char id=45      x=71   y=43   width=13   height=5    xoffset=1    yoffset=14   xadvance=15   page=0    chnl=0 
char id=46      x=66   y=43   width=5    height=5    xoffset=2    yoffset=20   xadvance=8    page=0    chnl=0 
char id=47      x=213  y=0    width=15   height=19   xoffset=1    yoffset=6    xadvance=16   page=0    chnl=0 
char id=48      x=485  y=0    width=13   height=18   xoffset=1    yoffset=7    xadvance=15   page=0    chnl=0 
char id=49      x=138  y=25   width=8    height=18   xoffset=0    yoffset=7    xadvance=9    page=0    chnl=0 
char id=50      x=146  y=25   width=13   height=18   xoffset=1    yoffset=7    xadvance=15   page=0    chnl=0 
char id=51      x=159  y=25   width=13   height=18   xoffset=1    yoffset=7    xadvance=15   page=0    chnl=0 
char id=52      x=172  y=25   width=13   height=18   xoffset=0    yoffset=7    xadvance=14   page=0    chnl=0 
char id=53      x=185  y=25   width=13   height=18   xoffset=1    yoffset=7    xadvance=15   page=0    chnl=0 
char id=54      x=198  y=25   width=13   height=18   xoffset=1    yoffset=7    xadvance=15   page=0    chnl=0 
char id=55      x=211  y=25   width=13   height=18   xoffset=1    yoffset=7    xadvance=14   page=0    chnl=0 
char id=56      x=224  y=25   width=13   height=18   xoffset=1    yoffset=7    xadvance=15   page=0    chnl=0 
char id=57      x=237  y=25   width=13   height=18   xoffset=1    yoffset=7    xadvance=15   page=0    chnl=0 
char id=58      x=499  y=25   width=5    height=11   xoffset=1    yoffset=14   xadvance=7    page=0    chnl=0 
char id=59      x=305  y=25   width=5    height=14   xoffset=1    yoffset=14   xadvance=7    page=0    chnl=0 
char id=60      x=189  y=0    width=12   height=19   xoffset=1    yoffset=6    xadvance=14   page=0    chnl=0 
char id=61      x=0    y=43   width=13   height=10   xoffset=1    yoffset=12   xadvance=15   page=0    chnl=0 
char id=62      x=201  y=0    width=12   height=19   xoffset=2    yoffset=6    xadvance=15   page=0    chnl=0 
char id=63      x=176  y=0    width=13   height=19   xoffset=1    yoffset=6    xadvance=15   page=0    chnl=0 
char id=64      x=228  y=0    width=25   height=19   xoffset=1    yoffset=6    xadvance=27   page=0    chnl=0 
char id=65      x=305  y=0    width=13   height=18   xoffset=1    yoffset=7    xadvance=15   page=0    chnl=0 
char id=66      x=318  y=0    width=13   height=18   xoffset=1    yoffset=7    xadvance=15   page=0    chnl=0 
char id=67      x=331  y=0    width=13   height=18   xoffset=1    yoffset=7    xadvance=15   page=0    chnl=0 
char id=68      x=344  y=0    width=13   height=18   xoffset=1    yoffset=7    xadvance=15   page=0    chnl=0 
char id=69      x=357  y=0    width=14   height=18   xoffset=2    yoffset=7    xadvance=17   page=0    chnl=0 
char id=70      x=371  y=0    width=14   height=18   xoffset=1    yoffset=7    xadvance=14   page=0    chnl=0 
char id=71      x=385  y=0    width=13   height=18   xoffset=1    yoffset=7    xadvance=15   page=0    chnl=0 
char id=72      x=398  y=0    width=13   height=18   xoffset=1    yoffset=7    xadvance=15   page=0    chnl=0 
char id=73      x=411  y=0    width=5    height=18   xoffset=1    yoffset=7    xadvance=7    page=0    chnl=0 
char id=74      x=416  y=0    width=13   height=18   xoffset=1    yoffset=7    xadvance=15   page=0    chnl=0 
char id=75      x=429  y=0    width=13   height=18   xoffset=1    yoffset=7    xadvance=15   page=0    chnl=0 
char id=76      x=442  y=0    width=14   height=18   xoffset=1    yoffset=7    xadvance=14   page=0    chnl=0 
char id=77      x=456  y=0    width=16   height=18   xoffset=1    yoffset=7    xadvance=18   page=0    chnl=0 
char id=78      x=472  y=0    width=13   height=18   xoffset=1    yoffset=7    xadvance=15   page=0    chnl=0 
char id=79      x=485  y=0    width=13   height=18   xoffset=1    yoffset=7    xadvance=15   page=0    chnl=0 
char id=80      x=498  y=0    width=13   height=18   xoffset=1    yoffset=7    xadvance=14   page=0    chnl=0 
char id=81      x=62   y=0    width=13   height=20   xoffset=1    yoffset=7    xadvance=15   page=0    chnl=0 
char id=82      x=0    y=25   width=13   height=18   xoffset=1    yoffset=7    xadvance=15   page=0    chnl=0 
char id=83      x=13   y=25   width=13   height=18   xoffset=1    yoffset=7    xadvance=15   page=0    chnl=0 
char id=84      x=26   y=25   width=13   height=18   xoffset=0    yoffset=7    xadvance=13   page=0    chnl=0 
char id=85      x=39   y=25   width=13   height=18   xoffset=1    yoffset=7    xadvance=15   page=0    chnl=0 
char id=86      x=52   y=25   width=13   height=18   xoffset=1    yoffset=7    xadvance=15   page=0    chnl=0 
char id=87      x=65   y=25   width=16   height=18   xoffset=1    yoffset=7    xadvance=18   page=0    chnl=0 
char id=88      x=81   y=25   width=13   height=18   xoffset=1    yoffset=7    xadvance=15   page=0    chnl=0 
char id=89      x=94   y=25   width=13   height=18   xoffset=1    yoffset=7    xadvance=15   page=0    chnl=0 
char id=90      x=107  y=25   width=13   height=18   xoffset=1    yoffset=7    xadvance=15   page=0    chnl=0 
char id=91      x=28   y=0    width=7    height=24   xoffset=1    yoffset=4    xadvance=9    page=0    chnl=0 
char id=92      x=253  y=0    width=15   height=19   xoffset=1    yoffset=6    xadvance=16   page=0    chnl=0 
char id=93      x=35   y=0    width=7    height=24   xoffset=1    yoffset=4    xadvance=9    page=0    chnl=0 
char id=94      x=49   y=43   width=10   height=8    xoffset=1    yoffset=6    xadvance=12   page=0    chnl=0 
char id=95      x=71   y=43   width=13   height=5    xoffset=1    yoffset=20   xadvance=15   page=0    chnl=0 
char id=96      x=59   y=43   width=7    height=7    xoffset=1    yoffset=7    xadvance=9    page=0    chnl=0 
char id=97      x=310  y=25   width=13   height=13   xoffset=1    yoffset=12   xadvance=15   page=0    chnl=0 
char id=98      x=75   y=0    width=13   height=19   xoffset=1    yoffset=6    xadvance=15   page=0    chnl=0 
char id=99      x=323  y=25   width=13   height=13   xoffset=1    yoffset=12   xadvance=15   page=0    chnl=0 
char id=100     x=120  y=25   width=13   height=18   xoffset=1    yoffset=7    xadvance=15   page=0    chnl=0 
char id=101     x=336  y=25   width=13   height=13   xoffset=1    yoffset=12   xadvance=15   page=0    chnl=0 
char id=102     x=88   y=0    width=13   height=19   xoffset=2    yoffset=6    xadvance=15   page=0    chnl=0 
char id=103     x=49   y=0    width=13   height=21   xoffset=1    yoffset=10   xadvance=15   page=0    chnl=0 
char id=104     x=101  y=0    width=13   height=19   xoffset=2    yoffset=6    xadvance=16   page=0    chnl=0 
char id=105     x=133  y=25   width=5    height=18   xoffset=2    yoffset=7    xadvance=8    page=0    chnl=0 
char id=106     x=14   y=0    width=7    height=24   xoffset=0    yoffset=7    xadvance=8    page=0    chnl=0 
char id=107     x=114  y=0    width=13   height=19   xoffset=1    yoffset=6    xadvance=15   page=0    chnl=0 
char id=108     x=127  y=0    width=5    height=19   xoffset=2    yoffset=6    xadvance=8    page=0    chnl=0 
char id=109     x=349  y=25   width=16   height=13   xoffset=1    yoffset=12   xadvance=18   page=0    chnl=0 
char id=110     x=365  y=25   width=13   height=13   xoffset=1    yoffset=12   xadvance=15   page=0    chnl=0 
char id=111     x=378  y=25   width=13   height=13   xoffset=1    yoffset=12   xadvance=15   page=0    chnl=0 
char id=112     x=132  y=0    width=13   height=19   xoffset=1    yoffset=12   xadvance=15   page=0    chnl=0 
char id=113     x=145  y=0    width=13   height=19   xoffset=1    yoffset=12   xadvance=15   page=0    chnl=0 
char id=114     x=391  y=25   width=13   height=13   xoffset=1    yoffset=12   xadvance=14   page=0    chnl=0 
char id=115     x=404  y=25   width=13   height=13   xoffset=1    yoffset=12   xadvance=15   page=0    chnl=0 
char id=116     x=279  y=25   width=10   height=16   xoffset=1    yoffset=9    xadvance=12   page=0    chnl=0 
char id=117     x=417  y=25   width=13   height=13   xoffset=1    yoffset=12   xadvance=15   page=0    chnl=0 
char id=118     x=430  y=25   width=13   height=13   xoffset=1    yoffset=12   xadvance=15   page=0    chnl=0 
char id=119     x=443  y=25   width=16   height=13   xoffset=1    yoffset=12   xadvance=18   page=0    chnl=0 
char id=120     x=459  y=25   width=14   height=13   xoffset=1    yoffset=12   xadvance=16   page=0    chnl=0 
char id=121     x=158  y=0    width=13   height=19   xoffset=1    yoffset=12   xadvance=15   page=0    chnl=0 
char id=122     x=473  y=25   width=13   height=13   xoffset=1    yoffset=12   xadvance=15   page=0    chnl=0 
char id=123     x=42   y=0    width=7    height=24   xoffset=1    yoffset=3    xadvance=9    page=0    chnl=0 
char id=124     x=250  y=25   width=13   height=18   xoffset=1    yoffset=7    xadvance=15   page=0    chnl=0 
char id=125     x=7    y=0    width=7    height=25   xoffset=1    yoffset=3    xadvance=9    page=0    chnl=0 
char id=126     x=13   y=43   width=15   height=10   xoffset=1    yoffset=12   xadvance=17   page=0    chnl=0 
kernings count=84
kerning first=84 second=44 amount=-3
kerning first=84 second=97 amount=-3
kerning first=70 second=115 amount=-1
kerning first=84 second=95 amount=-3
kerning first=84 second=122 amount=-1
kerning first=80 second=74 amount=-1
kerning first=84 second=100 amount=-2
kerning first=70 second=112 amount=-1
kerning first=95 second=86 amount=-2
kerning first=70 second=111 amount=-2
kerning first=70 second=103 amount=-1
kerning first=76 second=89 amount=-3
kerning first=102 second=97 amount=-2
kerning first=76 second=86 amount=-1
kerning first=70 second=117 amount=-1
kerning first=84 second=103 amount=-2
kerning first=45 second=89 amount=-2
kerning first=89 second=45 amount=-2
kerning first=84 second=113 amount=-2
kerning first=70 second=114 amount=-1
kerning first=89 second=100 amount=-1
kerning first=70 second=121 amount=-1
kerning first=89 second=95 amount=-3
kerning first=89 second=99 amount=-1
kerning first=86 second=95 amount=-2
kerning first=89 second=115 amount=-1
kerning first=84 second=99 amount=-1
kerning first=70 second=100 amount=-1
kerning first=84 second=101 amount=-2
kerning first=89 second=44 amount=-4
kerning first=102 second=103 amount=-1
kerning first=102 second=113 amount=-1
kerning first=102 second=44 amount=-3
kerning first=70 second=120 amount=-1
kerning first=84 second=46 amount=-4
kerning first=102 second=95 amount=-4
kerning first=89 second=46 amount=-4
kerning first=84 second=110 amount=-1
kerning first=84 second=112 amount=-1
kerning first=89 second=113 amount=-1
kerning first=84 second=114 amount=-1
kerning first=84 second=115 amount=-2
kerning first=84 second=117 amount=-2
kerning first=70 second=118 amount=-1
kerning first=84 second=119 amount=-2
kerning first=84 second=120 amount=-1
kerning first=84 second=121 amount=-2
kerning first=70 second=122 amount=-1
kerning first=118 second=46 amount=-2
kerning first=80 second=95 amount=-5
kerning first=86 second=44 amount=-2
kerning first=80 second=44 amount=-4
kerning first=76 second=45 amount=-7
kerning first=84 second=109 amount=-1
kerning first=76 second=34 amount=-7
kerning first=80 second=97 amount=-1
kerning first=84 second=111 amount=-2
kerning first=70 second=101 amount=-1
kerning first=89 second=103 amount=-1
kerning first=89 second=121 amount=-1
kerning first=84 second=45 amount=-3
kerning first=70 second=95 amount=-7
kerning first=118 second=44 amount=-2
kerning first=76 second=42 amount=-7
kerning first=70 second=97 amount=-3
kerning first=89 second=59 amount=-2
kerning first=76 second=84 amount=-3
kerning first=70 second=99 amount=-2
kerning first=84 second=58 amount=-3
kerning first=70 second=46 amount=-6
kerning first=76 second=39 amount=-6
kerning first=70 second=44 amount=-5
kerning first=89 second=101 amount=-1
kerning first=102 second=46 amount=-4
kerning first=80 second=46 amount=-4
kerning first=84 second=59 amount=-3
kerning first=84 second=118 amount=-2
kerning first=89 second=97 amount=-2
kerning first=45 second=84 amount=-2
kerning first=89 second=111 amount=-1
kerning first=95 second=84 amount=-2
kerning first=95 second=89 amount=-4
kerning first=86 second=46 amount=-3
kerning first=70 second=113 amount=-2
